-24 -32 40 -48 -56 -64 -64 -72 -80 -344 88 
160 -56 -24 -184 536 
8 -8 8 -8 8 -8 8 -8 -8 -8 -8 -8 -8 -8 -8 -8 -40 688 
-24 -40 -32 -24 -16 -24 -96 680 
-344 -32 32 -16 -272 256 
304 -32 -40 592 
-40 -24 232 -48 -432 176 
-96 -16 -96 16 -368 -272 80 
-24 24 -256 16 -256 -32 336 
-80 904 
-16 -112 40 -24 -56 704 
-96 -32 -16 32 -32 -32 -32 664 